-- Merging decision tree log ---
manifest
ADDED from /home/deck/Documentos/workspaceSublime/prestaa/platforms/android/AndroidManifest.xml:2:1-15:12
	package
		ADDED from /home/deck/Documentos/workspaceSublime/prestaa/platforms/android/AndroidManifest.xml:2:98-140
		INJECTED from /home/deck/Documentos/workspaceSublime/prestaa/platforms/android/AndroidManifest.xml
		INJECTED from /home/deck/Documentos/workspaceSublime/prestaa/platforms/android/AndroidManifest.xml
	android:versionName
		ADDED from /home/deck/Documentos/workspaceSublime/prestaa/platforms/android/AndroidManifest.xml:2:70-97
		INJECTED from /home/deck/Documentos/workspaceSublime/prestaa/platforms/android/AndroidManifest.xml
		INJECTED from /home/deck/Documentos/workspaceSublime/prestaa/platforms/android/AndroidManifest.xml
	android:hardwareAccelerated
		ADDED from /home/deck/Documentos/workspaceSublime/prestaa/platforms/android/AndroidManifest.xml:2:11-45
	android:versionCode
		ADDED from /home/deck/Documentos/workspaceSublime/prestaa/platforms/android/AndroidManifest.xml:2:46-69
		INJECTED from /home/deck/Documentos/workspaceSublime/prestaa/platforms/android/AndroidManifest.xml
		INJECTED from /home/deck/Documentos/workspaceSublime/prestaa/platforms/android/AndroidManifest.xml
	xmlns:android
		ADDED from /home/deck/Documentos/workspaceSublime/prestaa/platforms/android/AndroidManifest.xml:2:141-199
supports-screens
ADDED from /home/deck/Documentos/workspaceSublime/prestaa/platforms/android/AndroidManifest.xml:3:5-191
	android:largeScreens
		ADDED from /home/deck/Documentos/workspaceSublime/prestaa/platforms/android/AndroidManifest.xml:3:49-76
	android:smallScreens
		ADDED from /home/deck/Documentos/workspaceSublime/prestaa/platforms/android/AndroidManifest.xml:3:132-159
	android:normalScreens
		ADDED from /home/deck/Documentos/workspaceSublime/prestaa/platforms/android/AndroidManifest.xml:3:77-105
	android:xlargeScreens
		ADDED from /home/deck/Documentos/workspaceSublime/prestaa/platforms/android/AndroidManifest.xml:3:160-188
	android:resizeable
		ADDED from /home/deck/Documentos/workspaceSublime/prestaa/platforms/android/AndroidManifest.xml:3:106-131
	android:anyDensity
		ADDED from /home/deck/Documentos/workspaceSublime/prestaa/platforms/android/AndroidManifest.xml:3:23-48
uses-permission#android.permission.INTERNET
ADDED from /home/deck/Documentos/workspaceSublime/prestaa/platforms/android/AndroidManifest.xml:4:5-67
	android:name
		ADDED from /home/deck/Documentos/workspaceSublime/prestaa/platforms/android/AndroidManifest.xml:4:22-64
application
ADDED from /home/deck/Documentos/workspaceSublime/prestaa/platforms/android/AndroidManifest.xml:5:5-12:19
	android:label
		ADDED from /home/deck/Documentos/workspaceSublime/prestaa/platforms/android/AndroidManifest.xml:5:83-115
	android:supportsRtl
		ADDED from /home/deck/Documentos/workspaceSublime/prestaa/platforms/android/AndroidManifest.xml:5:116-142
	android:hardwareAccelerated
		ADDED from /home/deck/Documentos/workspaceSublime/prestaa/platforms/android/AndroidManifest.xml:5:18-52
	android:icon
		ADDED from /home/deck/Documentos/workspaceSublime/prestaa/platforms/android/AndroidManifest.xml:5:53-82
activity#com.ionicframework.prestaa109395.MainActivity
ADDED from /home/deck/Documentos/workspaceSublime/prestaa/platforms/android/AndroidManifest.xml:6:9-11:20
	android:label
		ADDED from /home/deck/Documentos/workspaceSublime/prestaa/platforms/android/AndroidManifest.xml:6:97-134
	android:launchMode
		ADDED from /home/deck/Documentos/workspaceSublime/prestaa/platforms/android/AndroidManifest.xml:6:135-165
	android:windowSoftInputMode
		ADDED from /home/deck/Documentos/workspaceSublime/prestaa/platforms/android/AndroidManifest.xml:6:257-299
	android:configChanges
		ADDED from /home/deck/Documentos/workspaceSublime/prestaa/platforms/android/AndroidManifest.xml:6:19-96
	android:theme
		ADDED from /home/deck/Documentos/workspaceSublime/prestaa/platforms/android/AndroidManifest.xml:6:194-256
	android:name
		ADDED from /home/deck/Documentos/workspaceSublime/prestaa/platforms/android/AndroidManifest.xml:6:166-193
intent-filter#android.intent.action.MAIN+android.intent.category.LAUNCHER
ADDED from /home/deck/Documentos/workspaceSublime/prestaa/platforms/android/AndroidManifest.xml:7:13-10:29
	android:label
		ADDED from /home/deck/Documentos/workspaceSublime/prestaa/platforms/android/AndroidManifest.xml:7:28-65
action#android.intent.action.MAIN
ADDED from /home/deck/Documentos/workspaceSublime/prestaa/platforms/android/AndroidManifest.xml:8:17-69
	android:name
		ADDED from /home/deck/Documentos/workspaceSublime/prestaa/platforms/android/AndroidManifest.xml:8:25-66
category#android.intent.category.LAUNCHER
ADDED from /home/deck/Documentos/workspaceSublime/prestaa/platforms/android/AndroidManifest.xml:9:17-77
	android:name
		ADDED from /home/deck/Documentos/workspaceSublime/prestaa/platforms/android/AndroidManifest.xml:9:27-74
uses-sdk
ADDED from /home/deck/Documentos/workspaceSublime/prestaa/platforms/android/AndroidManifest.xml:13:5-74
MERGED from [android:CordovaLib:unspecified:debug] /home/deck/Documentos/workspaceSublime/prestaa/platforms/android/build/intermediates/exploded-aar/android/CordovaLib/unspecified/debug/AndroidManifest.xml:25:5-44
	android:targetSdkVersion
		ADDED from /home/deck/Documentos/workspaceSublime/prestaa/platforms/android/AndroidManifest.xml:13:42-71
	android:minSdkVersion
		ADDED from /home/deck/Documentos/workspaceSublime/prestaa/platforms/android/AndroidManifest.xml:13:15-41
uses-permission#android.permission.WRITE_EXTERNAL_STORAGE
ADDED from /home/deck/Documentos/workspaceSublime/prestaa/platforms/android/AndroidManifest.xml:14:5-81
	android:name
		ADDED from /home/deck/Documentos/workspaceSublime/prestaa/platforms/android/AndroidManifest.xml:14:22-78
